\relax 
\catcode`"\active
\select@language{italian}
\@writefile{toc}{\select@language{italian}}
\@writefile{lof}{\select@language{italian}}
\@writefile{lot}{\select@language{italian}}
\@writefile{toc}{\contentsline {section}{\numberline {1}Introduzione}{2}}
\@writefile{toc}{\contentsline {subsection}{\numberline {1.1}Un esempio: Problema Fisico}{2}}
\@writefile{toc}{\contentsline {section}{\numberline {2}Analisi Numerica}{2}}
\@writefile{toc}{\contentsline {subsection}{\numberline {2.1}Problema di Cauchy}{2}}
\@writefile{toc}{\contentsline {subsection}{\numberline {2.2}Metodi numerici ad un passo}{3}}
\@writefile{toc}{\contentsline {subsection}{\numberline {2.3}Analisi della convergenza di un metodo numerico ad un passo}{4}}
\@writefile{toc}{\contentsline {subsection}{\numberline {2.4}Runge Kutta}{6}}
\@writefile{toc}{\contentsline {subsection}{\numberline {2.5}$RK^{4th}$}{7}}
\@writefile{toc}{\contentsline {section}{\numberline {3}Effettiva Implementazione}{7}}
\@writefile{toc}{\contentsline {subsection}{\numberline {3.1}Adattivit\'a dei metodi RK}{9}}
\@writefile{toc}{\contentsline {section}{\numberline {4}Conclusioni}{10}}
